{
  "description": "Comprehensive mock data for MaidCatalogue API endpoints - Use for development and testing",
  "version": "1.0.0",
  "lastUpdated": "2025-01-14",
  
  "authentication": {
    "loginSuccess": {
      "success": true,
      "message": "Login successful"
    },
    "loginError": {
      "success": false,
      "message": "Invalid email or password"
    },
    "signupSuccess": {
      "success": true,
      "message": "Account created successfully",
      "user": {
        "id": 456,
        "name": "Jane Smith",
        "email": "jane@example.com",
        "role": 131
      }
    },
    "profileResponse": {
      "user": {
        "id": 123,
        "name": "John Doe",
        "email": "john@example.com",
        "role": 131,
        "createdAt": "2024-01-15T08:30:00Z",
        "updatedAt": "2024-12-20T14:45:00Z"
      }
    },
    "adminProfile": {
      "user": {
        "id": 1,
        "name": "Admin User",
        "email": "admin@yikiat.com",
        "role": 999,
        "createdAt": "2023-06-01T09:00:00Z",
        "updatedAt": "2024-12-20T10:30:00Z"
      }
    },
    "simpleCallbackResponse": {
      "success": true,
      "user": {
        "id": 123,
        "name": "John Doe",
        "role": 131
      }
    },
    "authCallbackSuccess": {
      "success": true,
      "message": "Recommendation associated with user",
      "recommendationId": "rec_789xyz"
    }
  },

  "maids": {
    "cataloguePaginated": {
      "maids": [
        {
          "id": 1,
          "name": "Maria Santos",
          "imageUrl": "https://yikiat.com/images/maria_santos.jpg",
          "country": "Philippines",
          "salary": 600,
          "loan": 5000,
          "DOB": "1990-05-15",
          "height": 160,
          "weight": 55,
          "Religion": "Catholic",
          "maritalStatus": "Single",
          "NumChildren": 0,
          "skills": ["Cooking", "Cleaning", "Child Care", "Elderly Care"],
          "languages": ["English", "Filipino", "Mandarin"],
          "type": ["New/Fresh"],
          "isActive": true,
          "isEmployed": false,
          "supplier": "ABC Agency",
          "employmentHistory": [
            {
              "employer": "The Johnson Family",
              "duration": "2 years",
              "duties": "General housework, child care for 2 children",
              "reason": "Contract completion"
            }
          ],
          "maidDetails": {
            "experience": "5 years",
            "specialty": "Child care and cooking",
            "availability": "Immediate",
            "description": "Experienced domestic helper with excellent cooking skills and child care experience",
            "restDay": 1,
            "englishRating": 8,
            "chineseRating": 6,
            "dialectRating": 3,
            "highestEducation": "High School Graduate",
            "religion": "Catholic",
            "employmentHistory": "Previously worked in Singapore for 2 years, Taiwan for 1 year"
          }
        },
        {
          "id": 2,
          "name": "Siti Nurhaliza",
          "imageUrl": "https://yikiat.com/images/siti_nurhaliza.jpg",
          "country": "Indonesia",
          "salary": 580,
          "loan": 4500,
          "DOB": "1985-08-22",
          "height": 155,
          "weight": 52,
          "Religion": "Muslim",
          "maritalStatus": "Married",
          "NumChildren": 2,
          "skills": ["Cooking", "Cleaning", "Dog Care"],
          "languages": ["English", "Indonesian", "Malay"],
          "type": ["Ex-Singapore"],
          "isActive": true,
          "isEmployed": false,
          "supplier": "XYZ Manpower",
          "employmentHistory": [
            {
              "employer": "The Tan Family",
              "duration": "3 years",
              "duties": "Housekeeping, cooking, pet care",
              "reason": "Family relocated"
            },
            {
              "employer": "The Wong Family",
              "duration": "1.5 years",
              "duties": "General housework, elderly care",
              "reason": "Contract ended"
            }
          ],
          "maidDetails": {
            "experience": "8 years",
            "specialty": "Indonesian cooking and pet care",
            "availability": "Within 2 weeks",
            "description": "Experienced maid with expertise in Indonesian cuisine and pet care",
            "restDay": 2,
            "englishRating": 7,
            "chineseRating": 4,
            "dialectRating": 2,
            "highestEducation": "Junior High School",
            "religion": "Muslim",
            "employmentHistory": "Worked in Singapore for 4+ years across multiple families"
          }
        },
        {
          "id": 3,
          "name": "Thant Zin",
          "imageUrl": "https://yikiat.com/images/thant_zin.jpg",
          "country": "Myanmar",
          "salary": 550,
          "loan": 4000,
          "DOB": "1992-12-10",
          "height": 162,
          "weight": 58,
          "Religion": "Buddhist",
          "maritalStatus": "Single",
          "NumChildren": 0,
          "skills": ["Cleaning", "Elderly Care", "Babysitting"],
          "languages": ["English", "Myanmar", "Thai"],
          "type": ["Transfer"],
          "isActive": true,
          "isEmployed": true,
          "supplier": "Golden Gate Agency",
          "employmentHistory": [
            {
              "employer": "The Lee Family",
              "duration": "1 year",
              "duties": "Elderly care for grandmother, light housework",
              "reason": "Currently employed"
            }
          ],
          "maidDetails": {
            "experience": "3 years",
            "specialty": "Elderly care and patience with seniors",
            "availability": "Transfer in 3 months",
            "description": "Gentle and patient caregiver with experience in elderly care",
            "restDay": 1,
            "englishRating": 6,
            "chineseRating": 3,
            "dialectRating": 1,
            "highestEducation": "High School Graduate",
            "religion": "Buddhist",
            "employmentHistory": "First time working overseas, currently with first employer"
          }
        }
      ],
      "pagination": {
        "currentPage": 1,
        "totalPages": 15,
        "totalItems": 287,
        "hasNext": true,
        "hasPrev": false
      }
    },

    "topMaids": [
      {
        "id": 1,
        "name": "Maria Santos",
        "imageUrl": "https://yikiat.com/images/maria_santos.jpg",
        "country": "Philippines",
        "salary": 600,
        "rating": 4.9,
        "experience": "5 years",
        "specialty": "Child care and cooking"
      },
      {
        "id": 5,
        "name": "Lina Wijaya",
        "imageUrl": "https://yikiat.com/images/lina_wijaya.jpg",
        "country": "Indonesia",
        "salary": 620,
        "rating": 4.8,
        "experience": "7 years",
        "specialty": "Comprehensive housework"
      },
      {
        "id": 12,
        "name": "Carmela Rodriguez",
        "imageUrl": "https://yikiat.com/images/carmela_rodriguez.jpg",
        "country": "Philippines",
        "salary": 650,
        "rating": 4.7,
        "experience": "6 years",
        "specialty": "Cooking and child care"
      }
    ],

    "adminAllMaids": [
      {
        "id": 1,
        "name": "Maria Santos",
        "imageUrl": "https://yikiat.com/images/maria_santos.jpg",
        "country": "Philippines",
        "salary": 600,
        "loan": 5000,
        "DOB": "1990-05-15",
        "height": 160,
        "weight": 55,
        "Religion": "Catholic",
        "maritalStatus": "Single",
        "NumChildren": 0,
        "skills": ["Cooking", "Cleaning", "Child Care", "Elderly Care"],
        "languages": ["English", "Filipino", "Mandarin"],
        "type": ["New/Fresh"],
        "isActive": true,
        "isEmployed": false,
        "supplier": "ABC Agency",
        "createdAt": "2024-10-15T09:30:00Z",
        "updatedAt": "2024-12-20T14:45:00Z"
      },
      {
        "id": 2,
        "name": "Siti Nurhaliza",
        "imageUrl": "https://yikiat.com/images/siti_nurhaliza.jpg",
        "country": "Indonesia",
        "salary": 580,
        "loan": 4500,
        "DOB": "1985-08-22",
        "height": 155,
        "weight": 52,
        "Religion": "Muslim",
        "maritalStatus": "Married",
        "NumChildren": 2,
        "skills": ["Cooking", "Cleaning", "Dog Care"],
        "languages": ["English", "Indonesian", "Malay"],
        "type": ["Ex-Singapore"],
        "isActive": true,
        "isEmployed": false,
        "supplier": "XYZ Manpower",
        "createdAt": "2024-09-20T11:15:00Z",
        "updatedAt": "2024-12-18T16:20:00Z"
      }
    ],

    "searchResults": [
      {
        "id": 1,
        "name": "Maria Santos",
        "country": "Philippines",
        "salary": 600,
        "skills": ["Cooking", "Cleaning", "Child Care"],
        "languages": ["English", "Filipino"],
        "type": ["New/Fresh"],
        "isActive": true,
        "isEmployed": false,
        "matchScore": 95
      },
      {
        "id": 7,
        "name": "Maria Elena Cruz",
        "country": "Philippines", 
        "salary": 620,
        "skills": ["Cooking", "Babysitting", "Elderly Care"],
        "languages": ["English", "Filipino", "Mandarin"],
        "type": ["Ex-Taiwan"],
        "isActive": true,
        "isEmployed": false,
        "matchScore": 88
      }
    ],

    "createSuccess": {
      "success": true,
      "message": "Maid created successfully",
      "maid": {
        "id": 156,
        "name": "Rosa Martinez",
        "country": "Philippines",
        "salary": 610,
        "imageUrl": "https://yikiat.com/images/rosa_martinez.jpg",
        "createdAt": "2024-12-21T10:30:00Z"
      }
    },

    "updateSuccess": {
      "success": true,
      "message": "Maid updated successfully",
      "maid": {
        "id": 1,
        "name": "Maria Santos Updated",
        "salary": 620,
        "updatedAt": "2024-12-21T10:45:00Z"
      }
    },

    "deleteSuccess": {
      "success": true,
      "message": "Maid deleted successfully"
    }
  },

  "users": {
    "allUsers": [
      {
        "id": 123,
        "name": "John Doe",
        "email": "john@example.com",
        "role": 131,
        "createdAt": "2024-01-15T08:30:00Z",
        "updatedAt": "2024-12-20T14:45:00Z",
        "lastLogin": "2024-12-21T09:15:00Z",
        "hasRecommendations": true,
        "recommendationCount": 3,
        "favoriteCount": 5
      },
      {
        "id": 456,
        "name": "Jane Smith",
        "email": "jane@example.com",
        "role": 131,
        "createdAt": "2024-03-22T11:20:00Z",
        "updatedAt": "2024-12-19T16:30:00Z",
        "lastLogin": "2024-12-20T13:45:00Z",
        "hasRecommendations": false,
        "recommendationCount": 0,
        "favoriteCount": 2
      },
      {
        "id": 789,
        "name": "Michael Chen",
        "email": "michael@example.com",
        "role": 131,
        "createdAt": "2024-07-10T14:15:00Z",
        "updatedAt": "2024-12-21T08:20:00Z",
        "lastLogin": "2024-12-21T08:20:00Z",
        "hasRecommendations": true,
        "recommendationCount": 5,
        "favoriteCount": 8
      }
    ],

    "userProfile": {
      "id": 123,
      "name": "John Doe",
      "email": "john@example.com",
      "role": 131,
      "createdAt": "2024-01-15T08:30:00Z",
      "updatedAt": "2024-12-20T14:45:00Z",
      "preferences": {
        "preferredCountries": ["Philippines", "Indonesia"],
        "salaryRange": [500, 700],
        "requiredSkills": ["Cooking", "Child Care"],
        "notifications": true
      },
      "activity": {
        "totalLogins": 47,
        "lastLogin": "2024-12-21T09:15:00Z",
        "favoritesCount": 5,
        "recommendationsViewed": 12
      }
    }
  },

  "favorites": {
    "userFavorites": [
      {
        "id": 1,
        "name": "Maria Santos",
        "imageUrl": "https://yikiat.com/images/maria_santos.jpg",
        "country": "Philippines",
        "salary": 600,
        "skills": ["Cooking", "Child Care"],
        "addedAt": "2024-12-10T14:30:00Z"
      },
      {
        "id": 2,
        "name": "Siti Nurhaliza", 
        "imageUrl": "https://yikiat.com/images/siti_nurhaliza.jpg",
        "country": "Indonesia",
        "salary": 580,
        "skills": ["Cooking", "Pet Care"],
        "addedAt": "2024-12-15T11:20:00Z"
      },
      {
        "id": 12,
        "name": "Carmela Rodriguez",
        "imageUrl": "https://yikiat.com/images/carmela_rodriguez.jpg",
        "country": "Philippines",
        "salary": 650,
        "skills": ["Cooking", "Child Care", "Tutoring"],
        "addedAt": "2024-12-18T16:45:00Z"
      }
    ],

    "emptyFavorites": [],

    "addFavoriteSuccess": {
      "success": true,
      "message": "Added to favorites",
      "maidId": 1
    },

    "removeFavoriteSuccess": {
      "success": true,
      "message": "Removed from favorites", 
      "maidId": 1
    }
  },

  "recommendations": {
    "generateLinkSuccess": {
      "success": true,
      "link": "https://yikiat.com/recommend?token=rec_abc123xyz456",
      "token": "rec_abc123xyz456",
      "expiresAt": "2024-12-28T23:59:59Z",
      "maidCount": 3,
      "userId": 123
    },

    "recommendedMaidsAnonymous": {
      "maids": [
        {
          "id": 1,
          "name": "Maria Santos",
          "imageUrl": "https://yikiat.com/images/maria_santos.jpg",
          "country": "Philippines",
          "salary": 600,
          "skills": ["Cooking", "Child Care"],
          "experience": "5 years",
          "specialty": "Child care and cooking",
          "matchReason": "Excellent child care skills and cooking ability"
        },
        {
          "id": 5,
          "name": "Lina Wijaya",
          "imageUrl": "https://yikiat.com/images/lina_wijaya.jpg",
          "country": "Indonesia",
          "salary": 620,
          "skills": ["Cooking", "Cleaning", "Organization"],
          "experience": "7 years",
          "specialty": "Comprehensive housework",
          "matchReason": "Highly organized with excellent housekeeping skills"
        },
        {
          "id": 8,
          "name": "Patricia Tan",
          "imageUrl": "https://yikiat.com/images/patricia_tan.jpg",
          "country": "Philippines",
          "salary": 590,
          "skills": ["Child Care", "Tutoring", "Light Cooking"],
          "experience": "4 years", 
          "specialty": "Child education and care",
          "matchReason": "Great with children and can help with homework"
        }
      ],
      "token": "rec_abc123xyz456",
      "expiresAt": "2024-12-28T23:59:59Z",
      "recommendedBy": "Admin User",
      "recommendedAt": "2024-12-21T10:30:00Z"
    },

    "recommendedMaidsAuthenticated": [
      {
        "id": 1,
        "name": "Maria Santos",
        "imageUrl": "https://yikiat.com/images/maria_santos.jpg",
        "country": "Philippines",
        "salary": 600,
        "skills": ["Cooking", "Child Care"],
        "isFavorited": true,
        "recommendedAt": "2024-12-21T10:30:00Z"
      },
      {
        "id": 5,
        "name": "Lina Wijaya",
        "imageUrl": "https://yikiat.com/images/lina_wijaya.jpg",
        "country": "Indonesia", 
        "salary": 620,
        "skills": ["Cooking", "Organization"],
        "isFavorited": false,
        "recommendedAt": "2024-12-21T10:30:00Z"
      }
    ],

    "userRecommendations": {
      "userId": 123,
      "recommendations": [
        {
          "id": "rec_123_001",
          "token": "rec_abc123xyz456",
          "maidIds": [1, 5, 8],
          "createdAt": "2024-12-21T10:30:00Z",
          "expiresAt": "2024-12-28T23:59:59Z",
          "status": "active",
          "viewCount": 5,
          "lastViewedAt": "2024-12-21T15:20:00Z"
        }
      ]
    },

    "deleteRecommendationSuccess": {
      "success": true,
      "message": "Recommendation deleted successfully"
    }
  },

  "errors": {
    "unauthorized": {
      "success": false,
      "message": "Authentication required",
      "code": "UNAUTHORIZED",
      "status": 401
    },

    "forbidden": {
      "success": false,
      "message": "Access forbidden - insufficient permissions",
      "code": "FORBIDDEN", 
      "status": 403
    },

    "notFound": {
      "success": false,
      "message": "Resource not found",
      "code": "NOT_FOUND",
      "status": 404
    },

    "validationError": {
      "success": false,
      "message": "Validation failed",
      "code": "VALIDATION_ERROR",
      "status": 400,
      "details": {
        "name": "Name is required and must be at least 2 characters",
        "email": "Please provide a valid email address", 
        "password": "Password must be at least 8 characters long",
        "DOB": "Maid must be at least 18 years old",
        "salary": "Salary must be between 400 and 2000",
        "skills": "At least one skill must be selected"
      }
    },

    "rateLimited": {
      "success": false,
      "message": "Too many requests. Please wait 5 minutes before trying again.",
      "code": "RATE_LIMITED",
      "status": 429,
      "retryAfter": 300
    },

    "serverError": {
      "success": false,
      "message": "Internal server error occurred",
      "code": "SERVER_ERROR", 
      "status": 500
    },

    "networkError": {
      "success": false,
      "message": "Network connection failed",
      "code": "NETWORK_ERROR",
      "status": 0
    },

    "expiredToken": {
      "success": false,
      "message": "Recommendation link has expired",
      "code": "EXPIRED_TOKEN",
      "status": 410,
      "details": {
        "expiredAt": "2024-12-20T23:59:59Z",
        "canRegenerate": true
      }
    },

    "invalidCredentials": {
      "success": false,
      "message": "Invalid email or password",
      "code": "INVALID_CREDENTIALS",
      "status": 401,
      "details": {
        "attempts": 3,
        "lockoutAt": 5
      }
    },

    "duplicateEmail": {
      "success": false,
      "message": "Email address is already registered",
      "code": "DUPLICATE_EMAIL",
      "status": 409,
      "details": {
        "email": "user@example.com",
        "canResetPassword": true
      }
    }
  },

  "pagination": {
    "firstPage": {
      "currentPage": 1,
      "totalPages": 15,
      "totalItems": 287,
      "hasNext": true,
      "hasPrev": false,
      "limit": 20
    },

    "middlePage": {
      "currentPage": 5,
      "totalPages": 15,
      "totalItems": 287,
      "hasNext": true,
      "hasPrev": true,
      "limit": 20
    },

    "lastPage": {
      "currentPage": 15,
      "totalPages": 15,
      "totalItems": 287,
      "hasNext": false,
      "hasPrev": true,
      "limit": 20
    },

    "emptyResults": {
      "currentPage": 1,
      "totalPages": 0,
      "totalItems": 0,
      "hasNext": false,
      "hasPrev": false,
      "limit": 20
    }
  },

  "systemStatus": {
    "healthy": {
      "status": "healthy",
      "timestamp": "2024-12-21T10:30:00Z",
      "version": "1.2.3",
      "uptime": 1234567,
      "services": {
        "database": "healthy",
        "s3Storage": "healthy",
        "authentication": "healthy",
        "emailService": "healthy"
      }
    },

    "degraded": {
      "status": "degraded",
      "timestamp": "2024-12-21T10:30:00Z",
      "version": "1.2.3",
      "uptime": 1234567,
      "services": {
        "database": "healthy",
        "s3Storage": "degraded",
        "authentication": "healthy",
        "emailService": "down"
      },
      "issues": [
        "S3 storage experiencing high latency",
        "Email service temporarily unavailable"
      ]
    }
  },

  "usage": {
    "note": "This mock data file contains comprehensive JSON structures for all MaidCatalogue API endpoints",
    "instructions": {
      "development": "Use these structures to build frontend components without backend dependency",
      "testing": "Create test cases using various success and error scenarios",
      "documentation": "Reference for expected API response formats",
      "prototyping": "Quickly demonstrate features with realistic data"
    },
    "endpoints_covered": [
      "/api/auth/login",
      "/api/auth/signup", 
      "/api/auth/profile",
      "/api/auth/logout",
      "/api/auth/forgot-password",
      "/api/auth/reset-password",
      "/api/user/auth/callback",
      "/api/user/auth/simple-callback",
      "/api/admin/auth/login",
      "/api/admin/auth/callback",
      "/api/catalogue/maids",
      "/api/catalogue/top-maids",
      "/api/catalogue/user/favorites",
      "/api/admin/maids",
      "/api/admin/maid (POST/PUT/DELETE)",
      "/api/admin/maids/search",
      "/api/admin/users", 
      "/api/admin/generate-link",
      "/api/admin/users/:userId/recommendation",
      "/api/user/recommendation",
      "/api/user/recommended",
      "/api/user/favorites"
    ]
  }
}